…
``` r
trash_wheel_df = 
  bind_rows(mr_trash_df, prof_trash_df, gwynnda_df) |> 
  janitor::clean_names()
relocate(trash_wheel_df, dumpster, trash_wheel)
```

    ## # A tibble: 845 × 15
    ##    dumpster trash_wheel month  year date                weight_tons
    ##       <dbl> <chr>       <chr> <dbl> <dttm>                    <dbl>
    ##  1        1 <NA>        May    2014 2014-05-16 00:00:00        4.31
    ##  2        2 <NA>        May    2014 2014-05-16 00:00:00        2.74
    ##  3        3 <NA>        May    2014 2014-05-16 00:00:00        3.45
    ##  4        4 <NA>        May    2014 2014-05-17 00:00:00        3.1 
    ##  5        5 <NA>        May    2014 2014-05-17 00:00:00        4.06
    ##  6        6 <NA>        May    2014 2014-05-20 00:00:00        2.71
    ##  7        7 <NA>        May    2014 2014-05-21 00:00:00        1.91
    ##  8        8 <NA>        May    2014 2014-05-28 00:00:00        3.7 
    ##  9        9 <NA>        June   2014 2014-06-05 00:00:00        2.52
    ## 10       10 <NA>        June   2014 2014-06-11 00:00:00        3.76
    ## # ℹ 835 more rows
    ## # ℹ 9 more variables: volume_cubic_yards <dbl>, plastic_bottles <dbl>,
    ## #   polystyrene <dbl>, cigarette_butts <dbl>, glass_bottles <dbl>,
    ## #   plastic_bags <dbl>, wrappers <dbl>, sports_balls <int>, homes_powered <dbl>

``` r
select(trash_wheel_df, dumpster:homes_powered)
```

    ## # A tibble: 845 × 14
    ##    dumpster month  year date                weight_tons volume_cubic_yards
    ##       <dbl> <chr> <dbl> <dttm>                    <dbl>              <dbl>
    ##  1        1 May    2014 2014-05-16 00:00:00        4.31                 18
    ##  2        2 May    2014 2014-05-16 00:00:00        2.74                 13
    ##  3        3 May    2014 2014-05-16 00:00:00        3.45                 15
    ##  4        4 May    2014 2014-05-17 00:00:00        3.1                  15
    ##  5        5 May    2014 2014-05-17 00:00:00        4.06                 18
    ##  6        6 May    2014 2014-05-20 00:00:00        2.71                 13
    ##  7        7 May    2014 2014-05-21 00:00:00        1.91                  8
    ##  8        8 May    2014 2014-05-28 00:00:00        3.7                  16
    ##  9        9 June   2014 2014-06-05 00:00:00        2.52                 14
    ## 10       10 June   2014 2014-06-11 00:00:00        3.76                 18
    ## # ℹ 835 more rows
    ## # ℹ 8 more variables: plastic_bottles <dbl>, polystyrene <dbl>,
    ## #   cigarette_butts <dbl>, glass_bottles <dbl>, plastic_bags <dbl>,
    ## #   wrappers <dbl>, sports_balls <int>, homes_powered <dbl>
